{
  "courseWork": [
    {
      "courseId": "394759802366",
      "id": "399929961804",
      "title": ".NET API Tutorial",
      "description": "Tutorial: Create a web API with ASP.NET Core | Microsoft Docs\n\n\n\nComplete the tutorial.  (see link below)",
      "materials": [
        {
          "link": {
            "url": "https://docs.microsoft.com/en-us/aspnet/core/tutorials/first-web-api?view=aspnetcore-5.0&tabs=visual-studio",
            "title": "Tutorial: Create a web API with ASP.NET Core | Microsoft Docs",
            "thumbnailUrl": "https://classroom.google.com/webthumbnail?url=https://docs.microsoft.com/en-us/aspnet/core/tutorials/first-web-api?view%3Daspnetcore-5.0%26tabs%3Dvisual-studio"
          }
        }
      ],
      "state": "PUBLISHED",
      "alternateLink": "https://classroom.google.com/c/Mzk0NzU5ODAyMzY2/a/Mzk5OTI5OTYxODA0/details",
      "creationTime": "2021-09-21T21:00:59.827Z",
      "updateTime": "2021-09-22T20:21:19.466Z",
      "dueDate": {
        "year": 2021,
        "month": 9,
        "day": 29
      },
      "dueTime": {
        "hours": 4,
        "minutes": 59
      },
      "maxPoints": 100,
      "workType": "ASSIGNMENT",
      "submissionModificationMode": "MODIFIABLE_UNTIL_TURNED_IN",
      "creatorUserId": "102456862371373848726"
    },
    {
      "courseId": "394759802366",
      "id": "399929962098",
      "title": "Create teacher account on work.curriculumanalysis.org",
      "description": "You should now be able to access: work.curriculumanalysis.org (the 'work site' our term for development site).\nFirst, make sure you are on the work site and not the public site, then register as a member of the \"Science PLP -MTLC Participant\".\nAfter clicking on the registration link at the bottom of the login window, select 'Illinois' as the state in which your project is located.\nSelect the group mentioned above from the 'Select Project' drop-down and complete the other fields. \nSelect 'Teacher' for position and 'Science' for Subject.  There is only one district to select from (CPS), and school doesn't really matter, but select the Air Force Academy High School, just so we are all listed with the same school.",
      "materials": [
        {
          "link": {
            "url": "http://work.curriculumanalysis.org",
            "title": "403 - Forbidden: Access is denied.",
            "thumbnailUrl": "https://classroom.google.com/webthumbnail?url=http://work.curriculumanalysis.org"
          }
        }
      ],
      "state": "PUBLISHED",
      "alternateLink": "https://classroom.google.com/c/Mzk0NzU5ODAyMzY2/a/Mzk5OTI5OTYyMDk4/details",
      "creationTime": "2021-09-21T21:05:17.678Z",
      "updateTime": "2021-09-22T20:20:31.031Z",
      "dueDate": {
        "year": 2021,
        "month": 9,
        "day": 28
      },
      "dueTime": {
        "hours": 4,
        "minutes": 59
      },
      "maxPoints": 100,
      "workType": "ASSIGNMENT",
      "submissionModificationMode": "MODIFIABLE_UNTIL_TURNED_IN",
      "creatorUserId": "102456862371373848726"
    }
  ]
}